sc_rtl_DC/work/wave.vcd
$date
     Jan 15, 2016       17:16:14
$end

$version
              SystemC 2.3.0-ASI --- Jan 21 2013 09:04:20
$end

$timescale
     1 ps
$end

$scope module SystemC $end
$var wire   16  aaaaa  pc [15:0]  $end
$var wire    3  aaaab  domux_sel [2:0]  $end
$var wire    8  aaaac  alu_outl [7:0]  $end
$var wire   12  aaaad  alu_ctl [11:0]  $end
$var wire    1  aae  core_sm_alu_ctl_carry       $end
$var wire    1  aaf  core_sm_inc_op       $end
$var wire    8  aaaag  core_sm_opcode [7:0]  $end
$var wire    1  aah  oeb       $end
$var wire    1  aai  we_n       $end
$var wire    1  aaj  sync       $end
$var wire    1  aak  vpab       $end
$var wire    1  aal  res_n       $end
$var wire    1  aam  nmi_n       $end
$var wire    1  aan  irq_n       $end
$var wire    8  aaaao  datao [7:0]  $end
$var wire    8  aaaap  datai [7:0]  $end
$var wire   16  aaaaq  addr [15:0]  $end
$var wire    1  aar  clk       $end
$upscope $end
$enddefinitions  $end

$comment
All initial values are dumped below at time 0 sec = 0 timescale units.
$end

$dumpvars
bXXXXXXXXXXXXXXXX aaaaa
bXXX aaaab
bXXXXXXXX aaaac
bXXXXXXXXXXXX aaaad
xaae
xaaf
bXXXXXXXX aaaag
xaah
xaai
xaaj
xaak
0aal
0aam
0aan
bXXXXXXXX aaaao
bXXXXXXXX aaaap
bXXXXXXXXXXXXXXXX aaaaq
1aar
$end

#250000
1aah
0aar

#500000
b1111111111111100 aaaaa
b0 aaaab
b0 aaaac
bXXXXXX1XXXXX aaaad
b0 aaaag
xaah
1aak
1aam
b0 aaaao
b11111111XXXXXXXX aaaaq
1aar

#750000
1aah
0aar

#1000000
bX00000100101 aaaad
0aae
0aaf
xaah
1aar

#1250000
1aah
0aar

#1500000
b100101 aaaad
1aai
b11111111 aaaap
b1111111111111100 aaaaq
1aar

#1750000
0aar

#2000000
0aaj
1aal
0aam
1aar

#2250000
0aar

#2500000
b110 aaaab
b101 aaaad
b11111111 aaaao
b100000000 aaaaq
1aar

#2750000
0aar

#3000000
b111 aaaab
b11111100 aaaao
b0 aaaap
b111111111 aaaaq
1aar

#3250000
0aar

#3500000
b10 aaaab
b100 aaaao
b111111110 aaaaq
1aar

#3750000
0aar

#4000000
b0 aaaab
0aak
b0 aaaao
b11111111 aaaap
b1111111111111100 aaaaq
1aar

#4250000
0aar

#4500000
b1111111111111101 aaaaa
b1111111111111101 aaaaq
1aar

#4750000
0aar

#5000000
b1111111111111111 aaaaa
1aaj
1aak
b1111111111111111 aaaaq
1aar

#5250000
0aar

#5500000
0aaj
1aar

#5750000
0aar

#6000000
b110 aaaab
0aah
0aai
b11111111 aaaao
b0 aaaap
b111111101 aaaaq
1aar

#6250000
1aah
0aar

#6500000
b111 aaaab
0aah
b111111100 aaaaq
1aar

#6750000
1aah
0aar

#7000000
b10 aaaab
0aah
b100 aaaao
b111111011 aaaaq
1aar

#7250000
1aah
0aar

#7500000
b1111111111111010 aaaaa
b0 aaaab
1aai
0aak
b0 aaaao
b1110 aaaap
b1111111111111010 aaaaq
1aar

#7750000
0aar

#8000000
b1111111111111011 aaaaa
b11111111 aaaap
b1111111111111011 aaaaq
1aar

#8250000
0aar

#8500000
b1111111100001110 aaaaa
1aaj
1aak
b10110000 aaaap
b1111111100001110 aaaaq
1aar

#8750000
0aar

#9000000
b1111111100001111 aaaaa
b111 aaaab
b10110000 aaaag
0aaj
b1111 aaaao
b10 aaaap
b1111111100001111 aaaaq
1aar

#9250000
0aar

#9500000
b1111111100010000 aaaaa
b110 aaaab
b1000 aaaac
b1110010000 aaaad
1aae
1aaj
b11111111 aaaao
b11000110 aaaap
b1111111100010000 aaaaq
1aar

#9750000
0aar

#10000000
b1111111100010001 aaaaa
b0 aaaab
b10000000 aaaac
b1101000000 aaaad
0aae
b11000110 aaaag
0aaj
b10000000 aaaao
b11 aaaap
b1111111100010001 aaaaq
1aar

#10250000
0aar

#10500000
b1111111100010010 aaaaa
b11111111 aaaac
b10000000101 aaaad
b11111111 aaaao
b11 aaaaq
1aar

#10750000
0aar

#11000000
b111 aaaac
b10000000001 aaaad
b111 aaaao
b0 aaaap
1aar

#11250000
0aar

#11500000
b11111111 aaaac
0aah
0aai
b11111111 aaaao
1aar

#11750000
1aah
0aar

#12000000
b0 aaaac
b10000000101 aaaad
1aai
1aaj
b0 aaaao
b1100000 aaaap
b1111111100010010 aaaaq
1aar

#12250000
0aar

#12500000
b1111111100010011 aaaaa
b1100000 aaaag
0aaj
b111111010 aaaaq
1aar

#12750000
0aar

#13000000
b11000000101 aaaad
b0 aaaap
b111111011 aaaaq
1aar

#13250000
0aar

#13500000
b100 aaaap
b111111100 aaaaq
1aar

#13750000
0aar

#14000000
b1111111100000100 aaaaa
b11111111 aaaap
1aar

#14250000
0aar

#14500000
b1111111100000101 aaaaa
1aaj
b1011 aaaap
b1111111100000101 aaaaq
1aar

#14750000
0aar

#15000000
b1111111100000110 aaaaa
b1011 aaaag
0aaj
b10011000 aaaap
b1111111100000110 aaaaq
1aar

#15250000
0aar

#15500000
b101 aaaad
1aar

#15750000
0aar

#16000000
1aar

#16250000
0aar

#16500000
1aar

#16750000
0aar

#17000000
1aar

#17250000
0aar

#17500000
1aar

#17750000
0aar

#18000000
1aar

#18250000
0aar

#18500000
1aaj
1aar

#18750000
0aar

#19000000
b1111111100000111 aaaaa
b101 aaaab
b10011000 aaaag
0aaj
b1001001 aaaap
b1111111100000111 aaaaq
1aar

#19250000
0aar

#19500000
b100000101 aaaad
1aaj
1aar

#19750000
0aar

#20000000
b1111111100001000 aaaaa
b1 aaaab
b1001001 aaaag
0aaj
b11111111 aaaap
b1111111100001000 aaaaq
1aar

#20250000
0aar

#20500000
b1111111100001001 aaaaa
b0 aaaab
b11111111 aaaac
b10010000110 aaaad
1aaj
b11111111 aaaao
b111000 aaaap
b1111111100001001 aaaaq
1aar

#20750000
0aar

#21000000
b1111111100001010 aaaaa
b0 aaaac
b10000000101 aaaad
b111000 aaaag
0aaj
b0 aaaao
b1100101 aaaap
b1111111100001010 aaaaq
1aar

#21250000
0aar

#21500000
b1100000101 aaaad
1aaj
1aar

#21750000
0aar

#22000000
b1111111100001011 aaaaa
b1100101 aaaag
0aaj
b10 aaaap
b1111111100001011 aaaaq
1aar

#22250000
0aar

#22500000
b1111111100001100 aaaaa
b1 aaaab
b11000000101 aaaad
b11111111 aaaao
b10 aaaaq
1aar

#22750000
0aar

#23000000
b0 aaaab
b11111100 aaaac
b11010010000 aaaad
1aae
1aaj
b11111100 aaaao
b10000101 aaaap
b1111111100001100 aaaaq
1aar

#23250000
0aar

#23500000
b1111111100001101 aaaaa
b11111111 aaaac
b11000000101 aaaad
0aae
b10000101 aaaag
0aaj
b11111111 aaaao
b10 aaaap
b1111111100001101 aaaaq
1aar

#23750000
0aar

#24000000
b1111111100001110 aaaaa
b1 aaaab
b101 aaaad
0aah
0aai
b11111100 aaaao
b0 aaaap
b10 aaaaq
1aar

#24250000
1aah
0aar

#24500000
b0 aaaab
b11111100 aaaac
b10000101 aaaad
1aai
1aaj
b10110000 aaaap
b1111111100001110 aaaaq
1aar

#24750000
0aar

#25000000
b1111111100001111 aaaaa
b111 aaaab
b101 aaaad
b10110000 aaaag
0aaj
b1111 aaaao
b10 aaaap
b1111111100001111 aaaaq
1aar

#25250000
0aar

#25500000
b1111111100010000 aaaaa
b110 aaaab
b1000 aaaac
b1110010000 aaaad
1aae
b11111111 aaaao
b11000110 aaaap
b1111111100010000 aaaaq
1aar

#25750000
0aar

#26000000
b1111111100010010 aaaaa
b0 aaaab
b10000000 aaaac
b1101000000 aaaad
0aae
1aaj
b10000000 aaaao
b1100000 aaaap
b1111111100010010 aaaaq
1aar

#26250000
0aar

#26500000
b1111111100010011 aaaaa
b11111111 aaaac
b1100000101 aaaad
b1100000 aaaag
0aaj
b11111111 aaaao
b111111100 aaaaq
1aar

#26750000
0aar

#27000000
b11000000101 aaaad
b11111111 aaaap
b111111101 aaaaq
1aar

#27250000
0aar

#27500000
b111111110 aaaaq
1aar

#27750000
0aar

#28000000
b11111111 aaaaa
b0 aaaap
1aar

#28250000
0aar

#28500000
b100000000 aaaaa
1aaj
b100000000 aaaaq
1aar

#28750000
0aar

#29000000
b100000001 aaaaa
b0 aaaag
0aaj
b100000001 aaaaq
1aar

#29250000
0aar

#29500000
b100000010 aaaaa
b110 aaaab
b101 aaaad
0aah
0aai
b1 aaaao
b111111110 aaaaq
1aar

#29750000
1aah
0aar

#30000000
b111 aaaab
0aah
b10 aaaao
b111111101 aaaaq
1aar

#30250000
1aah
0aar

#30500000
b10 aaaab
0aah
b10010111 aaaao
b111111100 aaaaq
1aar

#30750000
1aah
0aar

#31000000
b1111111111111110 aaaaa
b0 aaaab
1aai
0aak
b11111111 aaaao
b11111111 aaaap
b1111111111111110 aaaaq
1aar

#31250000
0aar

#31500000
b1111111111111111 aaaaa
b1111111111111111 aaaaq
1aar

#31750000
0aar

#32000000
1aaj
1aak
1aar

#32250000
0aar

#32500000
b0 aaaaa
b11111111 aaaag
0aaj
b0 aaaaq
1aar

#32750000
0aar

#33000000
b1 aaaaa
b11100000101 aaaad
b0 aaaap
1aar

#33250000
0aar

#33500000
b111 aaaab
b0 aaaac
b11101000100 aaaad
b1 aaaao
b1 aaaaq
1aar

#33750000
0aar

#34000000
b10 aaaaa
b110 aaaab
b11110010000 aaaad
1aae
1aaj
b0 aaaao
b10 aaaaq
1aar

#34250000
0aar

#34500000
b11 aaaaa
b0 aaaab
b1 aaaac
b11101000000 aaaad
0aae
b11111100 aaaag
0aaj
b1 aaaao
b11111100 aaaap
b11 aaaaq
1aar

#34750000
0aar

#35000000
b0 aaaac
b11100000101 aaaad
b0 aaaao
b11111111 aaaap
1aar

#35250000
0aar

#35500000
1aar

#35750000
0aar

#36000000
1aar

#36250000
0aar

#36500000
1aar

#36750000
0aar

#37000000
1aar

#37250000
0aar

#37500000
1aar

#37750000
0aar

#38000000
1aaj
1aar

#38250000
0aar

#38500000
b100 aaaaa
b11111111 aaaag
0aaj
b100 aaaaq
1aar

#38750000
0aar

#39000000
b101 aaaaa
b0 aaaap
b0 aaaaq
1aar

#39250000
0aar

#39500000
b111 aaaab
b11101000100 aaaad
b101 aaaao
b101 aaaaq
1aar

#39750000
0aar

#40000000
b110 aaaaa
b110 aaaab
b100 aaaac
b11110010000 aaaad
1aae
1aaj
b0 aaaao
b110 aaaaq
1aar

#40250000
0aar

#40500000
b111 aaaaa
b0 aaaab
b1 aaaac
b11101000000 aaaad
0aae
b0 aaaag
0aaj
b1 aaaao
b111 aaaaq
1aar

#40750000
0aar

#41000000
b1000 aaaaa
b110 aaaab
b0 aaaac
b101 aaaad
0aah
0aai
b0 aaaao
b111111011 aaaaq
1aar

#41250000
1aah
0aar

#41500000
b111 aaaab
0aah
b1000 aaaao
b111111010 aaaaq
1aar

#41750000
1aah
0aar

#42000000
b10 aaaab
0aah
b10010111 aaaao
b111111001 aaaaq
1aar

#42250000
1aah
0aar

#42500000
b1111111111111110 aaaaa
b0 aaaab
1aai
0aak
b0 aaaao
b11111111 aaaap
b1111111111111110 aaaaq
1aar

#42750000
0aar

#43000000
b1111111111111111 aaaaa
b1111111111111111 aaaaq
1aar

#43250000
0aar

#43500000
1aaj
1aak
1aar

#43750000
0aar

#44000000
b0 aaaaa
b11111111 aaaag
0aaj
b0 aaaaq
1aar

#44250000
0aar

#44500000
b1 aaaaa
b11100000101 aaaad
b0 aaaap
1aar

#44750000
0aar

#45000000
b111 aaaab
b11101000100 aaaad
b1 aaaao
b1 aaaaq
1aar

#45250000
0aar

#45500000
b10 aaaaa
b110 aaaab
b11110010000 aaaad
1aae
1aaj
b0 aaaao
b10 aaaaq
1aar

#45750000
0aar

#46000000
b11 aaaaa
b0 aaaab
b1 aaaac
b11101000000 aaaad
0aae
b11111100 aaaag
0aaj
b1 aaaao
b11111100 aaaap
b11 aaaaq
1aar

#46250000
0aar

#46500000
b0 aaaac
b11100000101 aaaad
b0 aaaao
b11111111 aaaap
1aar

#46750000
0aar

#47000000
1aar

#47250000
0aar

#47500000
1aar

#47750000
0aar

#48000000
1aar

#48250000
0aar

#48500000
1aar

#48750000
0aar

#49000000
1aar

#49250000
0aar

#49500000
1aaj
1aar

#49750000
0aar

#50000000
b100 aaaaa
b11111111 aaaag
0aaj
b100 aaaaq
1aar

#50250000
0aar

#50500000
b101 aaaaa
b0 aaaap
b0 aaaaq
1aar

#50750000
0aar

#51000000
b111 aaaab
b11101000100 aaaad
b101 aaaao
b101 aaaaq
1aar

#51250000
0aar

#51500000
b110 aaaaa
b110 aaaab
b100 aaaac
b11110010000 aaaad
1aae
1aaj
b0 aaaao
b110 aaaaq
1aar

#51750000
0aar

#52000000
b111 aaaaa
b0 aaaab
b1 aaaac
b11101000000 aaaad
0aae
b0 aaaag
0aaj
b1 aaaao
b111 aaaaq
1aar

#52250000
0aar

#52500000
b1000 aaaaa
b110 aaaab
b0 aaaac
b101 aaaad
0aah
0aai
b0 aaaao
b111111000 aaaaq
1aar

#52750000
1aah
0aar

#53000000
b111 aaaab
0aah
b1000 aaaao
b111110111 aaaaq
1aar

#53250000
1aah
0aar

#53500000
b10 aaaab
0aah
b10010111 aaaao
b111110110 aaaaq
1aar

#53750000
1aah
0aar

#54000000
b1111111111111110 aaaaa
b0 aaaab
1aai
0aak
b0 aaaao
b11111111 aaaap
b1111111111111110 aaaaq
1aar

#54250000
0aar

#54500000
b1111111111111111 aaaaa
b1111111111111111 aaaaq
1aar

#54750000
0aar

#55000000
1aaj
1aak
1aar

#55250000
0aar

#55500000
b0 aaaaa
b11111111 aaaag
0aaj
b0 aaaaq
1aar

#55750000
0aar

#56000000
b1 aaaaa
b11100000101 aaaad
b0 aaaap
1aar

#56250000
0aar

#56500000
b111 aaaab
b11101000100 aaaad
b1 aaaao
b1 aaaaq
1aar

#56750000
0aar

#57000000
b10 aaaaa
b110 aaaab
b11110010000 aaaad
1aae
1aaj
b0 aaaao
b10 aaaaq
1aar

#57250000
0aar

#57500000
b11 aaaaa
b0 aaaab
b1 aaaac
b11101000000 aaaad
0aae
b11111100 aaaag
0aaj
b1 aaaao
b11111100 aaaap
b11 aaaaq
1aar

#57750000
0aar

#58000000
b0 aaaac
b11100000101 aaaad
b0 aaaao
b11111111 aaaap
1aar

#58250000
0aar

#58500000
1aar

#58750000
0aar

#59000000
1aar

#59250000
0aar

#59500000
1aar

#59750000
0aar

#60000000
1aar

#60250000
0aar

#60500000
1aar

#60750000
0aar

#61000000
1aaj
1aar

#61250000
0aar

#61500000
b100 aaaaa
b11111111 aaaag
0aaj
b100 aaaaq
1aar

#61750000
0aar

#62000000
b101 aaaaa
b0 aaaap
b0 aaaaq
1aar

#62250000
0aar

#62500000
b111 aaaab
b11101000100 aaaad
b101 aaaao
b101 aaaaq
1aar

#62750000
0aar

#63000000
b110 aaaaa
b110 aaaab
b100 aaaac
b11110010000 aaaad
1aae
1aaj
b0 aaaao
b110 aaaaq
1aar

#63250000
0aar

#63500000
b111 aaaaa
b0 aaaab
b1 aaaac
b11101000000 aaaad
0aae
b0 aaaag
0aaj
b1 aaaao
b111 aaaaq
1aar

#63750000
0aar

#64000000
b1000 aaaaa
b110 aaaab
b0 aaaac
b101 aaaad
0aah
0aai
b0 aaaao
b111110101 aaaaq
1aar

#64250000
1aah
0aar

#64500000
b111 aaaab
0aah
b1000 aaaao
b111110100 aaaaq
1aar

#64750000
1aah
0aar

#65000000
b10 aaaab
0aah
b10010111 aaaao
b111110011 aaaaq
1aar

#65250000
1aah
0aar

#65500000
b1111111111111110 aaaaa
b0 aaaab
1aai
0aak
b0 aaaao
b11111111 aaaap
b1111111111111110 aaaaq
1aar

#65750000
0aar

#66000000
b1111111111111111 aaaaa
b1111111111111111 aaaaq
1aar

#66250000
0aar

#66500000
1aaj
1aak
1aar

#66750000
0aar

#67000000
b0 aaaaa
b11111111 aaaag
0aaj
b0 aaaaq
1aar

#67250000
0aar

#67500000
b1 aaaaa
b11100000101 aaaad
b0 aaaap
1aar

#67750000
0aar

#68000000
b111 aaaab
b11101000100 aaaad
b1 aaaao
b1 aaaaq
1aar

#68250000
0aar

#68500000
b10 aaaaa
b110 aaaab
b11110010000 aaaad
1aae
1aaj
b0 aaaao
b10 aaaaq
1aar

#68750000
0aar

#69000000
b11 aaaaa
b0 aaaab
b1 aaaac
b11101000000 aaaad
0aae
b11111100 aaaag
0aaj
b1 aaaao
b11111100 aaaap
b11 aaaaq
1aar

#69250000
0aar

#69500000
b0 aaaac
b11100000101 aaaad
b0 aaaao
b11111111 aaaap
1aar

#69750000
0aar

#70000000
1aar

#70250000
0aar

#70500000
1aar

#70750000
0aar

#71000000
1aar

#71250000
0aar

#71500000
1aar

#71750000
0aar

#72000000
1aar

#72250000
0aar

#72500000
1aaj
1aar

#72750000
0aar

#73000000
b100 aaaaa
b11111111 aaaag
0aaj
b100 aaaaq
1aar

#73250000
0aar

#73500000
b101 aaaaa
b0 aaaap
b0 aaaaq
1aar

#73750000
0aar

#74000000
b111 aaaab
b11101000100 aaaad
b101 aaaao
b101 aaaaq
1aar

#74250000
0aar

#74500000
b110 aaaaa
b110 aaaab
b100 aaaac
b11110010000 aaaad
1aae
1aaj
b0 aaaao
b110 aaaaq
1aar

#74750000
0aar

#75000000
b111 aaaaa
b0 aaaab
b1 aaaac
b11101000000 aaaad
0aae
b0 aaaag
0aaj
b1 aaaao
b111 aaaaq
1aar

#75250000
0aar

#75500000
b1000 aaaaa
b110 aaaab
b0 aaaac
b101 aaaad
0aah
0aai
b0 aaaao
b111110010 aaaaq
1aar

#75750000
1aah
0aar

#76000000
b111 aaaab
0aah
b1000 aaaao
b111110001 aaaaq
1aar

#76250000
1aah
0aar

#76500000
b10 aaaab
0aah
b10010111 aaaao
b111110000 aaaaq
1aar

#76750000
1aah
0aar

#77000000
b1111111111111110 aaaaa
b0 aaaab
1aai
0aak
b0 aaaao
b11111111 aaaap
b1111111111111110 aaaaq
1aar

#77250000
0aar

#77500000
b1111111111111111 aaaaa
b1111111111111111 aaaaq
1aar

#77750000
0aar

#78000000
1aaj
1aak
1aar

#78250000
0aar

#78500000
b0 aaaaa
b11111111 aaaag
0aaj
b0 aaaaq
1aar

#78750000
0aar

#79000000
b1 aaaaa
b11100000101 aaaad
b0 aaaap
1aar

#79250000
0aar

#79500000
b111 aaaab
b11101000100 aaaad
b1 aaaao
b1 aaaaq
1aar

#79750000
0aar

#80000000
b10 aaaaa
b110 aaaab
b11110010000 aaaad
1aae
1aaj
b0 aaaao
b10 aaaaq
1aar

#80250000
0aar

#80500000
b11 aaaaa
b0 aaaab
b1 aaaac
b11101000000 aaaad
0aae
b11111100 aaaag
0aaj
b1 aaaao
b11111100 aaaap
b11 aaaaq
1aar

#80750000
0aar

#81000000
b0 aaaac
b11100000101 aaaad
b0 aaaao
b11111111 aaaap
1aar

#81250000
0aar

#81500000
1aar

#81750000
0aar

#82000000
1aar

#82250000
0aar

#82500000
1aar

#82750000
0aar

#83000000
1aar

#83250000
0aar

#83500000
1aar

#83750000
0aar

#84000000
1aaj
1aar

#84250000
0aar

#84500000
b100 aaaaa
b11111111 aaaag
0aaj
b100 aaaaq
1aar

#84750000
0aar

#85000000
b101 aaaaa
b0 aaaap
b0 aaaaq
1aar

#85250000
0aar

#85500000
b111 aaaab
b11101000100 aaaad
b101 aaaao
b101 aaaaq
1aar

#85750000
0aar

#86000000
b110 aaaaa
b110 aaaab
b100 aaaac
b11110010000 aaaad
1aae
1aaj
b0 aaaao
b110 aaaaq
1aar

#86250000
0aar

#86500000
b111 aaaaa
b0 aaaab
b1 aaaac
b11101000000 aaaad
0aae
b0 aaaag
0aaj
b1 aaaao
b111 aaaaq
1aar

#86750000
0aar

#87000000
b1000 aaaaa
b110 aaaab
b0 aaaac
b101 aaaad
0aah
0aai
b0 aaaao
b111101111 aaaaq
1aar

#87250000
1aah
0aar

#87500000
b111 aaaab
0aah
b1000 aaaao
b111101110 aaaaq
1aar

#87750000
1aah
0aar

#88000000
b10 aaaab
0aah
b10010111 aaaao
b111101101 aaaaq
1aar

#88250000
1aah
0aar

#88500000
b1111111111111110 aaaaa
b0 aaaab
1aai
0aak
b0 aaaao
b11111111 aaaap
b1111111111111110 aaaaq
1aar

#88750000
0aar

#89000000
b1111111111111111 aaaaa
b1111111111111111 aaaaq
1aar

#89250000
0aar

#89500000
1aaj
1aak
1aar

#89750000
0aar

#90000000
b0 aaaaa
b11111111 aaaag
0aaj
b0 aaaaq
1aar

#90250000
0aar

#90500000
b1 aaaaa
b11100000101 aaaad
b0 aaaap
1aar

#90750000
0aar

#91000000
b111 aaaab
b11101000100 aaaad
b1 aaaao
b1 aaaaq
1aar

#91250000
0aar

#91500000
b10 aaaaa
b110 aaaab
b11110010000 aaaad
1aae
1aaj
b0 aaaao
b10 aaaaq
1aar

#91750000
0aar

#92000000
b11 aaaaa
b0 aaaab
b1 aaaac
b11101000000 aaaad
0aae
b11111100 aaaag
0aaj
b1 aaaao
b11111100 aaaap
b11 aaaaq
1aar

#92250000
0aar

#92500000
b0 aaaac
b11100000101 aaaad
b0 aaaao
b11111111 aaaap
1aar

#92750000
0aar

#93000000
1aar

#93250000
0aar

#93500000
1aar

#93750000
0aar

#94000000
1aar

#94250000
0aar

#94500000
1aar

#94750000
0aar

#95000000
1aar

#95250000
0aar

#95500000
1aaj
1aar

#95750000
0aar

#96000000
b100 aaaaa
b11111111 aaaag
0aaj
b100 aaaaq
1aar

#96250000
0aar

#96500000
b101 aaaaa
b0 aaaap
b0 aaaaq
1aar

#96750000
0aar

#97000000
b111 aaaab
b11101000100 aaaad
b101 aaaao
b101 aaaaq
1aar

#97250000
0aar

#97500000
b110 aaaaa
b110 aaaab
b100 aaaac
b11110010000 aaaad
1aae
1aaj
b0 aaaao
b110 aaaaq
1aar

#97750000
0aar

#98000000
b111 aaaaa
b0 aaaab
b1 aaaac
b11101000000 aaaad
0aae
b0 aaaag
0aaj
b1 aaaao
b111 aaaaq
1aar

#98250000
0aar

#98500000
b1000 aaaaa
b110 aaaab
b0 aaaac
b101 aaaad
0aah
0aai
b0 aaaao
b111101100 aaaaq
1aar

#98750000
1aah
0aar

#99000000
b111 aaaab
0aah
b1000 aaaao
b111101011 aaaaq
1aar

#99250000
1aah
0aar

#99500000
b10 aaaab
0aah
b10010111 aaaao
b111101010 aaaaq
1aar

#99750000
1aah
0aar

#100000000
b1111111111111110 aaaaa
b0 aaaab
1aai
0aak
b0 aaaao
b11111111 aaaap
b1111111111111110 aaaaq
1aar

#100250000
0aar

#100500000
b1111111111111111 aaaaa
b1111111111111111 aaaaq
1aar

#100750000
0aar

#101000000
1aaj
1aak
1aar

#101250000
0aar

#101500000
b0 aaaaa
b11111111 aaaag
0aaj
b0 aaaaq
1aar

#101750000
0aar

#102000000
b1 aaaaa
b11100000101 aaaad
b0 aaaap
1aar

#102250000
0aar

#102500000
b111 aaaab
b11101000100 aaaad
b1 aaaao
b1 aaaaq
1aar

